module hi_golang

go 1.22.0

toolchain go1.22.2

require (
	github.com/antchfx/htmlquery v1.2.3
	github.com/gin-gonic/gin v1.9.0
	github.com/jinzhu/gorm v1.9.16
	github.com/labstack/gommon v0.3.1
	github.com/lestrrat-go/file-rotatelogs v0.0.0-20200908100331-f962e9de32ae
	go.uber.org/atomic v1.11.0
	go.uber.org/zap v1.21.0
	golang.org/x/net v0.34.0
)

require (
	9fans.net/go v0.0.0-20181112161441-237454027057 // indirect
	cloud.google.com/go v0.116.0 // indirect
	cloud.google.com/go/accessapproval v1.8.2 // indirect
	cloud.google.com/go/accesscontextmanager v1.9.2 // indirect
	cloud.google.com/go/aiplatform v1.69.0 // indirect
	cloud.google.com/go/analytics v0.25.2 // indirect
	cloud.google.com/go/apigateway v1.7.2 // indirect
	cloud.google.com/go/apigeeconnect v1.7.2 // indirect
	cloud.google.com/go/apigeeregistry v0.9.2 // indirect
	cloud.google.com/go/apikeys v0.6.0 // indirect
	cloud.google.com/go/appengine v1.9.2 // indirect
	cloud.google.com/go/area120 v0.9.2 // indirect
	cloud.google.com/go/artifactregistry v1.16.0 // indirect
	cloud.google.com/go/asset v1.20.3 // indirect
	cloud.google.com/go/assuredworkloads v1.12.2 // indirect
	cloud.google.com/go/automl v1.14.2 // indirect
	cloud.google.com/go/baremetalsolution v1.3.2 // indirect
	cloud.google.com/go/batch v1.11.2 // indirect
	cloud.google.com/go/beyondcorp v1.1.2 // indirect
	cloud.google.com/go/bigquery v1.64.0 // indirect
	cloud.google.com/go/billing v1.19.2 // indirect
	cloud.google.com/go/binaryauthorization v1.9.2 // indirect
	cloud.google.com/go/certificatemanager v1.9.2 // indirect
	cloud.google.com/go/channel v1.19.1 // indirect
	cloud.google.com/go/cloudbuild v1.19.0 // indirect
	cloud.google.com/go/clouddms v1.8.2 // indirect
	cloud.google.com/go/cloudtasks v1.13.2 // indirect
	cloud.google.com/go/compute v1.29.0 // indirect
	cloud.google.com/go/compute/metadata v0.6.0 // indirect
	cloud.google.com/go/contactcenterinsights v1.15.1 // indirect
	cloud.google.com/go/container v1.42.0 // indirect
	cloud.google.com/go/containeranalysis v0.13.2 // indirect
	cloud.google.com/go/datacatalog v1.23.0 // indirect
	cloud.google.com/go/dataflow v0.10.2 // indirect
	cloud.google.com/go/dataform v0.10.2 // indirect
	cloud.google.com/go/datafusion v1.8.2 // indirect
	cloud.google.com/go/datalabeling v0.9.2 // indirect
	cloud.google.com/go/dataplex v1.19.2 // indirect
	cloud.google.com/go/dataproc v1.12.0 // indirect
	cloud.google.com/go/dataproc/v2 v2.10.0 // indirect
	cloud.google.com/go/dataqna v0.9.2 // indirect
	cloud.google.com/go/datastore v1.20.0 // indirect
	cloud.google.com/go/datastream v1.11.2 // indirect
	cloud.google.com/go/deploy v1.25.0 // indirect
	cloud.google.com/go/dialogflow v1.60.0 // indirect
	cloud.google.com/go/dlp v1.20.0 // indirect
	cloud.google.com/go/documentai v1.35.0 // indirect
	cloud.google.com/go/domains v0.10.2 // indirect
	cloud.google.com/go/edgecontainer v1.4.0 // indirect
	cloud.google.com/go/errorreporting v0.3.1 // indirect
	cloud.google.com/go/essentialcontacts v1.7.2 // indirect
	cloud.google.com/go/eventarc v1.15.0 // indirect
	cloud.google.com/go/filestore v1.9.2 // indirect
	cloud.google.com/go/firestore v1.17.0 // indirect
	cloud.google.com/go/functions v1.19.2 // indirect
	cloud.google.com/go/gaming v1.10.1 // indirect
	cloud.google.com/go/gkebackup v1.6.2 // indirect
	cloud.google.com/go/gkeconnect v0.12.0 // indirect
	cloud.google.com/go/gkehub v0.15.2 // indirect
	cloud.google.com/go/gkemulticloud v1.4.1 // indirect
	cloud.google.com/go/grafeas v0.3.11 // indirect
	cloud.google.com/go/gsuiteaddons v1.7.2 // indirect
	cloud.google.com/go/iam v1.2.2 // indirect
	cloud.google.com/go/iap v1.10.2 // indirect
	cloud.google.com/go/ids v1.5.2 // indirect
	cloud.google.com/go/iot v1.8.2 // indirect
	cloud.google.com/go/kms v1.20.1 // indirect
	cloud.google.com/go/language v1.14.2 // indirect
	cloud.google.com/go/lifesciences v0.10.2 // indirect
	cloud.google.com/go/logging v1.12.0 // indirect
	cloud.google.com/go/longrunning v0.6.2 // indirect
	cloud.google.com/go/managedidentities v1.7.2 // indirect
	cloud.google.com/go/maps v1.15.0 // indirect
	cloud.google.com/go/mediatranslation v0.9.2 // indirect
	cloud.google.com/go/memcache v1.11.2 // indirect
	cloud.google.com/go/metastore v1.14.2 // indirect
	cloud.google.com/go/monitoring v1.21.2 // indirect
	cloud.google.com/go/networkconnectivity v1.15.2 // indirect
	cloud.google.com/go/networkmanagement v1.16.0 // indirect
	cloud.google.com/go/networksecurity v0.10.2 // indirect
	cloud.google.com/go/notebooks v1.12.2 // indirect
	cloud.google.com/go/optimization v1.7.2 // indirect
	cloud.google.com/go/orchestration v1.11.1 // indirect
	cloud.google.com/go/orgpolicy v1.14.1 // indirect
	cloud.google.com/go/osconfig v1.14.2 // indirect
	cloud.google.com/go/oslogin v1.14.2 // indirect
	cloud.google.com/go/phishingprotection v0.9.2 // indirect
	cloud.google.com/go/policytroubleshooter v1.11.2 // indirect
	cloud.google.com/go/privatecatalog v0.10.2 // indirect
	cloud.google.com/go/pubsub v1.45.1 // indirect
	cloud.google.com/go/pubsublite v1.8.2 // indirect
	cloud.google.com/go/recaptchaenterprise v1.3.1 // indirect
	cloud.google.com/go/recaptchaenterprise/v2 v2.19.0 // indirect
	cloud.google.com/go/recommendationengine v0.9.2 // indirect
	cloud.google.com/go/recommender v1.13.2 // indirect
	cloud.google.com/go/redis v1.17.2 // indirect
	cloud.google.com/go/resourcemanager v1.10.2 // indirect
	cloud.google.com/go/resourcesettings v1.8.2 // indirect
	cloud.google.com/go/retail v1.19.1 // indirect
	cloud.google.com/go/run v1.7.0 // indirect
	cloud.google.com/go/scheduler v1.11.2 // indirect
	cloud.google.com/go/secretmanager v1.14.2 // indirect
	cloud.google.com/go/security v1.18.2 // indirect
	cloud.google.com/go/securitycenter v1.35.2 // indirect
	cloud.google.com/go/servicecontrol v1.11.1 // indirect
	cloud.google.com/go/servicedirectory v1.12.2 // indirect
	cloud.google.com/go/servicemanagement v1.8.0 // indirect
	cloud.google.com/go/serviceusage v1.6.0 // indirect
	cloud.google.com/go/shell v1.8.2 // indirect
	cloud.google.com/go/spanner v1.73.0 // indirect
	cloud.google.com/go/speech v1.25.2 // indirect
	cloud.google.com/go/storage v1.49.0 // indirect
	cloud.google.com/go/storagetransfer v1.11.2 // indirect
	cloud.google.com/go/talent v1.7.2 // indirect
	cloud.google.com/go/texttospeech v1.10.0 // indirect
	cloud.google.com/go/tpu v1.7.2 // indirect
	cloud.google.com/go/trace v1.11.2 // indirect
	cloud.google.com/go/translate v1.12.2 // indirect
	cloud.google.com/go/video v1.23.2 // indirect
	cloud.google.com/go/videointelligence v1.12.2 // indirect
	cloud.google.com/go/vision v1.2.0 // indirect
	cloud.google.com/go/vision/v2 v2.9.2 // indirect
	cloud.google.com/go/vmmigration v1.8.2 // indirect
	cloud.google.com/go/vmwareengine v1.3.2 // indirect
	cloud.google.com/go/vpcaccess v1.8.2 // indirect
	cloud.google.com/go/webrisk v1.10.2 // indirect
	cloud.google.com/go/websecurityscanner v1.7.2 // indirect
	cloud.google.com/go/workflows v1.13.2 // indirect
	dmitri.shuralyov.com/gpu/mtl v0.0.0-20190408044501-666a987793e9 // indirect
	gioui.org v0.0.0-20210308172011-57750fc8a0a6 // indirect
	git.sr.ht/~sbinet/gg v0.3.1 // indirect
	github.com/BurntSushi/toml v1.0.0 // indirect
	github.com/BurntSushi/xgb v0.0.0-20160522181843-27f122750802 // indirect
	github.com/CatchZeng/dingtalk v1.5.0 // indirect
	github.com/CatchZeng/gutils v0.1.5 // indirect
	github.com/DataDog/datadog-go v3.2.0+incompatible // indirect
	github.com/JohnCGriffin/overflow v0.0.0-20211019200055-46fa312c352c // indirect
	github.com/OneOfOne/xxhash v1.2.2 // indirect
	github.com/PuerkitoBio/goquery v1.5.1 // indirect
	github.com/ajstarks/deck v0.0.0-20200831202436-30c9fc6549a9 // indirect
	github.com/ajstarks/deck/generate v0.0.0-20210309230005-c3f852c02e19 // indirect
	github.com/ajstarks/svgo v0.0.0-20211024235047-1546f124cd8b // indirect
	github.com/alecthomas/template v0.0.0-20190718012654-fb15b899a751 // indirect
	github.com/alecthomas/units v0.0.0-20190924025748-f65c72e2690d // indirect
	github.com/andybalholm/brotli v1.0.4 // indirect
	github.com/andybalholm/cascadia v1.1.0 // indirect
	github.com/antchfx/xpath v1.1.6 // indirect
	github.com/antihax/optional v1.0.0 // indirect
	github.com/apache/arrow/go/v10 v10.0.1 // indirect
	github.com/apache/arrow/go/v11 v11.0.0 // indirect
	github.com/apache/arrow/go/v12 v12.0.0 // indirect
	github.com/apache/thrift v0.16.0 // indirect
	github.com/armon/circbuf v0.0.0-20150827004946-bbbad097214e // indirect
	github.com/armon/go-metrics v0.4.1 // indirect
	github.com/armon/go-radix v1.0.0 // indirect
	github.com/beevik/etree v1.4.1 // indirect
	github.com/benbjohnson/clock v1.1.0 // indirect
	github.com/beorn7/perks v1.0.1 // indirect
	github.com/bgentry/speakeasy v0.1.0 // indirect
	github.com/boombuler/barcode v1.0.1 // indirect
	github.com/brianvoe/gofakeit/v6 v6.23.2 // indirect
	github.com/bytedance/sonic v1.8.0 // indirect
	github.com/census-instrumentation/opencensus-proto v0.4.1 // indirect
	github.com/cespare/xxhash v1.1.0 // indirect
	github.com/cespare/xxhash/v2 v2.3.0 // indirect
	github.com/chenzhuoyu/base64x v0.0.0-20221115062448-fe3a3abad311 // indirect
	github.com/chzyer/logex v1.1.10 // indirect
	github.com/chzyer/readline v0.0.0-20180603132655-2972be24d48e // indirect
	github.com/chzyer/test v0.0.0-20180213035817-a1ea475d72b1 // indirect
	github.com/circonus-labs/circonus-gometrics v2.3.1+incompatible // indirect
	github.com/circonus-labs/circonusllhist v0.1.3 // indirect
	github.com/client9/misspell v0.3.4 // indirect
	github.com/cncf/udpa/go v0.0.0-20220112060539-c52dc94e7fbe // indirect
	github.com/cncf/xds/go v0.0.0-20240905190251-b4127c9b8d78 // indirect
	github.com/coreos/go-semver v0.3.0 // indirect
	github.com/coreos/go-systemd/v22 v22.3.2 // indirect
	github.com/creack/pty v1.1.9 // indirect
	github.com/davecgh/go-spew v1.1.2-0.20180830191138-d8f796af33cc // indirect
	github.com/denisenkom/go-mssqldb v0.0.0-20191124224453-732737034ffd // indirect
	github.com/docopt/docopt-go v0.0.0-20180111231733-ee0de3bc6815 // indirect
	github.com/dustin/go-humanize v1.0.1 // indirect
	github.com/envoyproxy/go-control-plane v0.13.1 // indirect
	github.com/envoyproxy/protoc-gen-validate v1.1.0 // indirect
	github.com/erikstmartin/go-testdb v0.0.0-20160219214506-8d10e4a1bae5 // indirect
	github.com/fatih/color v1.14.1 // indirect
	github.com/fogleman/gg v1.3.0 // indirect
	github.com/frankban/quicktest v1.14.6 // indirect
	github.com/fsnotify/fsnotify v1.8.0 // indirect
	github.com/ghodss/yaml v1.0.0 // indirect
	github.com/gin-contrib/gzip v0.0.6 // indirect
	github.com/gin-contrib/sse v0.1.0 // indirect
	github.com/go-fonts/dejavu v0.1.0 // indirect
	github.com/go-fonts/latin-modern v0.2.0 // indirect
	github.com/go-fonts/liberation v0.2.0 // indirect
	github.com/go-fonts/stix v0.1.0 // indirect
	github.com/go-gl/glfw v0.0.0-20190409004039-e6da0acd62b1 // indirect
	github.com/go-gl/glfw/v3.3/glfw v0.0.0-20200222043503-6f7a984d4dc4 // indirect
	github.com/go-kit/kit v0.9.0 // indirect
	github.com/go-kit/log v0.1.0 // indirect
	github.com/go-latex/latex v0.0.0-20210823091927-c0d11ff05a81 // indirect
	github.com/go-logfmt/logfmt v0.5.0 // indirect
	github.com/go-pdf/fpdf v0.6.0 // indirect
	github.com/go-playground/assert/v2 v2.2.0 // indirect
	github.com/go-playground/locales v0.14.1 // indirect
	github.com/go-playground/universal-translator v0.18.1 // indirect
	github.com/go-playground/validator/v10 v10.11.2 // indirect
	github.com/go-sql-driver/mysql v1.5.0 // indirect
	github.com/go-stack/stack v1.8.0 // indirect
	github.com/goccy/go-json v0.10.2 // indirect
	github.com/godbus/dbus/v5 v5.0.4 // indirect
	github.com/gogo/protobuf v1.3.2 // indirect
	github.com/golang-sql/civil v0.0.0-20190719163853-cb61b32ac6fe // indirect
	github.com/golang/freetype v0.0.0-20170609003504-e2365dfdc4a0 // indirect
	github.com/golang/glog v1.2.2 // indirect
	github.com/golang/groupcache v0.0.0-20210331224755-41bb18bfe9da // indirect
	github.com/golang/mock v1.6.0 // indirect
	github.com/golang/protobuf v1.5.4 // indirect
	github.com/golang/snappy v0.0.4 // indirect
	github.com/gomodule/redigo v2.0.0+incompatible // indirect
	github.com/google/btree v1.0.1 // indirect
	github.com/google/flatbuffers v23.5.26+incompatible // indirect
	github.com/google/go-cmdtest v0.4.0 // indirect
	github.com/google/go-cmp v0.6.0 // indirect
	github.com/google/go-pkcs11 v0.3.0 // indirect
	github.com/google/gofuzz v1.0.0 // indirect
	github.com/google/martian v2.1.0+incompatible // indirect
	github.com/google/martian/v3 v3.3.3 // indirect
	github.com/google/pprof v0.0.0-20210720184732-4bb14d4b1be1 // indirect
	github.com/google/renameio v0.1.0 // indirect
	github.com/google/s2a-go v0.1.8 // indirect
	github.com/google/safehtml v0.0.2 // indirect
	github.com/google/uuid v1.6.0 // indirect
	github.com/googleapis/enterprise-certificate-proxy v0.3.4 // indirect
	github.com/googleapis/gax-go/v2 v2.14.1 // indirect
	github.com/googleapis/go-type-adapters v1.0.0 // indirect
	github.com/googleapis/google-cloud-go-testing v0.0.0-20210719221736-1c9a4c676720 // indirect
	github.com/gorilla/websocket v1.4.2 // indirect
	github.com/grpc-ecosystem/go-grpc-prometheus v1.2.0 // indirect
	github.com/grpc-ecosystem/grpc-gateway v1.16.0 // indirect
	github.com/grpc-ecosystem/grpc-gateway/v2 v2.16.0 // indirect
	github.com/hashicorp/consul/api v1.28.2 // indirect
	github.com/hashicorp/consul/sdk v0.16.0 // indirect
	github.com/hashicorp/errwrap v1.1.0 // indirect
	github.com/hashicorp/go-cleanhttp v0.5.2 // indirect
	github.com/hashicorp/go-hclog v1.5.0 // indirect
	github.com/hashicorp/go-immutable-radix v1.3.1 // indirect
	github.com/hashicorp/go-msgpack v0.5.5 // indirect
	github.com/hashicorp/go-multierror v1.1.1 // indirect
	github.com/hashicorp/go-retryablehttp v0.5.3 // indirect
	github.com/hashicorp/go-rootcerts v1.0.2 // indirect
	github.com/hashicorp/go-sockaddr v1.0.2 // indirect
	github.com/hashicorp/go-syslog v1.0.0 // indirect
	github.com/hashicorp/go-uuid v1.0.3 // indirect
	github.com/hashicorp/go-version v1.2.1 // indirect
	github.com/hashicorp/golang-lru v0.5.4 // indirect
	github.com/hashicorp/hcl v1.0.0 // indirect
	github.com/hashicorp/logutils v1.0.0 // indirect
	github.com/hashicorp/mdns v1.0.4 // indirect
	github.com/hashicorp/memberlist v0.5.0 // indirect
	github.com/hashicorp/serf v0.10.1 // indirect
	github.com/iancoleman/strcase v0.3.0 // indirect
	github.com/ianlancetaylor/demangle v0.0.0-20200824232613-28f6c0f3b639 // indirect
	github.com/inconshreveable/mousetrap v1.1.0 // indirect
	github.com/jba/printsrc v0.2.2 // indirect
	github.com/jba/templatecheck v0.6.0 // indirect
	github.com/jinzhu/inflection v1.0.0 // indirect
	github.com/jinzhu/now v1.1.1 // indirect
	github.com/jpillora/backoff v1.0.0 // indirect
	github.com/json-iterator/go v1.1.12 // indirect
	github.com/jstemmer/go-junit-report v0.9.1 // indirect
	github.com/julienschmidt/httprouter v1.3.0 // indirect
	github.com/jung-kurt/gofpdf v1.0.3-0.20190309125859-24315acbbda5 // indirect
	github.com/kballard/go-shellquote v0.0.0-20180428030007-95032a82bc51 // indirect
	github.com/kisielk/errcheck v1.5.0 // indirect
	github.com/kisielk/gotool v1.0.0 // indirect
	github.com/klauspost/asmfmt v1.3.2 // indirect
	github.com/klauspost/compress v1.17.2 // indirect
	github.com/klauspost/cpuid/v2 v2.2.5 // indirect
	github.com/konsorten/go-windows-terminal-sequences v1.0.3 // indirect
	github.com/kr/fs v0.1.0 // indirect
	github.com/kr/logfmt v0.0.0-20140226030751-b84e30acd515 // indirect
	github.com/kr/pretty v0.3.1 // indirect
	github.com/kr/pty v1.1.1 // indirect
	github.com/kr/text v0.2.0 // indirect
	github.com/leodido/go-urn v1.2.1 // indirect
	github.com/lestrrat-go/envload v0.0.0-20180220234015-a3eb8ddeffcc // indirect
	github.com/lestrrat-go/strftime v1.0.5 // indirect
	github.com/lib/pq v1.1.1 // indirect
	github.com/lyft/protoc-gen-star v0.6.1 // indirect
	github.com/lyft/protoc-gen-star/v2 v2.0.4-0.20230330145011-496ad1ac90a4 // indirect
	github.com/magiconair/properties v1.8.9 // indirect
	github.com/mattn/go-colorable v0.1.13 // indirect
	github.com/mattn/go-isatty v0.0.17 // indirect
	github.com/mattn/go-sqlite3 v1.14.15 // indirect
	github.com/matttproud/golang_protobuf_extensions v1.0.1 // indirect
	github.com/miekg/dns v1.1.41 // indirect
	github.com/minio/asm2plan9s v0.0.0-20200509001527-cdd76441f9d8 // indirect
	github.com/minio/c2goasm v0.0.0-20190812172519-36a3d3bbc4f3 // indirect
	github.com/mitchellh/cli v1.1.0 // indirect
	github.com/mitchellh/go-homedir v1.1.0 // indirect
	github.com/mitchellh/go-wordwrap v1.0.0 // indirect
	github.com/mitchellh/mapstructure v1.5.0 // indirect
	github.com/modern-go/concurrent v0.0.0-20180306012644-bacd9c7ef1dd // indirect
	github.com/modern-go/reflect2 v1.0.2 // indirect
	github.com/mohae/deepcopy v0.0.0-20170929034955-c48cc78d4826 // indirect
	github.com/mwitkow/go-conntrack v0.0.0-20190716064945-2f068394615f // indirect
	github.com/nats-io/nats.go v1.34.0 // indirect
	github.com/nats-io/nkeys v0.4.7 // indirect
	github.com/nats-io/nuid v1.0.1 // indirect
	github.com/newhook/go-symbols v0.0.0-20151212134530-b75dfefa0d23 // indirect
	github.com/northbright/xls2csv-go v0.0.0-20170801084719-a41b112cd306 // indirect
	github.com/pascaldekloe/goe v0.1.0 // indirect
	github.com/pelletier/go-toml/v2 v2.2.3 // indirect
	github.com/phpdave11/gofpdf v1.4.2 // indirect
	github.com/phpdave11/gofpdi v1.0.13 // indirect
	github.com/pierrec/lz4/v4 v4.1.18 // indirect
	github.com/pkg/diff v0.0.0-20210226163009-20ebb0f2a09e // indirect
	github.com/pkg/errors v0.9.1 // indirect
	github.com/pkg/sftp v1.13.7 // indirect
	github.com/pmezard/go-difflib v1.0.1-0.20181226105442-5d4384ee4fb2 // indirect
	github.com/posener/complete v1.2.3 // indirect
	github.com/prometheus/client_golang v1.11.1 // indirect
	github.com/prometheus/client_model v0.6.0 // indirect
	github.com/prometheus/common v0.26.0 // indirect
	github.com/prometheus/procfs v0.6.0 // indirect
	github.com/remyoudompheng/bigfft v0.0.0-20230129092748-24d4a6f8daec // indirect
	github.com/richardlehane/mscfb v1.0.4 // indirect
	github.com/richardlehane/msoleps v1.0.3 // indirect
	github.com/rogpeppe/fastuuid v1.2.0 // indirect
	github.com/rogpeppe/go-internal v1.10.0 // indirect
	github.com/rogpeppe/godef v1.1.2 // indirect
	github.com/ruudk/golang-pdf417 v0.0.0-20201230142125-a7e3863a1245 // indirect
	github.com/ryanuber/columnize v2.1.0+incompatible // indirect
	github.com/sagikazarmark/crypt v0.19.0 // indirect
	github.com/sagikazarmark/locafero v0.7.0 // indirect
	github.com/sagikazarmark/slog-shim v0.1.0 // indirect
	github.com/sean-/seed v0.0.0-20170313163322-e2103e2c3529 // indirect
	github.com/sergi/go-diff v1.1.0 // indirect
	github.com/sirupsen/logrus v1.6.0 // indirect
	github.com/sourcegraph/conc v0.3.0 // indirect
	github.com/spaolacci/murmur3 v0.0.0-20180118202830-f09979ecbc72 // indirect
	github.com/spf13/afero v1.12.0 // indirect
	github.com/spf13/cast v1.7.1 // indirect
	github.com/spf13/cobra v1.8.1 // indirect
	github.com/spf13/pflag v1.0.5 // indirect
	github.com/spf13/viper v1.19.0 // indirect
	github.com/stretchr/objx v0.5.2 // indirect
	github.com/stretchr/testify v1.10.0 // indirect
	github.com/subosito/gotenv v1.6.0 // indirect
	github.com/tencentcloud/tencentcloud-sdk-go/tencentcloud/common v1.0.1095 // indirect
	github.com/tencentcloud/tencentcloud-sdk-go/tencentcloud/lkeap v1.0.1095 // indirect
	github.com/tidwall/gjson v1.14.4 // indirect
	github.com/tidwall/match v1.1.1 // indirect
	github.com/tidwall/pretty v1.2.1 // indirect
	github.com/tv42/httpunix v0.0.0-20150427012821-b75d8614f926 // indirect
	github.com/twitchyliquid64/golang-asm v0.15.1 // indirect
	github.com/ugorji/go v1.2.7 // indirect
	github.com/ugorji/go/codec v1.2.9 // indirect
	github.com/valyala/bytebufferpool v1.0.0 // indirect
	github.com/valyala/fasttemplate v1.2.1 // indirect
	github.com/xuri/efp v0.0.0-20220603152613-6918739fd470 // indirect
	github.com/xuri/excelize/v2 v2.6.1 // indirect
	github.com/xuri/nfp v0.0.0-20220409054826-5e722a1d9e22 // indirect
	github.com/yuin/goldmark v1.4.13 // indirect
	github.com/zeebo/assert v1.3.0 // indirect
	github.com/zeebo/xxh3 v1.0.2 // indirect
	go.etcd.io/etcd/api/v3 v3.5.12 // indirect
	go.etcd.io/etcd/client/pkg/v3 v3.5.12 // indirect
	go.etcd.io/etcd/client/v2 v2.305.12 // indirect
	go.etcd.io/etcd/client/v3 v3.5.12 // indirect
	go.opencensus.io v0.24.0 // indirect
	go.opentelemetry.io/proto/otlp v1.0.0 // indirect
	go.uber.org/goleak v1.3.0 // indirect
	go.uber.org/multierr v1.11.0 // indirect
	golang.org/x/arch v0.0.0-20210923205945-b76863e36670 // indirect
	golang.org/x/crypto v0.32.0 // indirect
	golang.org/x/exp v0.0.0-20250106191152-7588d65b2ba8 // indirect
	golang.org/x/exp/typeparams v0.0.0-20220218215828-6cf2b201936e // indirect
	golang.org/x/image v0.0.0-20220413100746-70e8d0d3baa9 // indirect
	golang.org/x/lint v0.0.0-20210508222113-6edffad5e616 // indirect
	golang.org/x/mobile v0.0.0-20190719004257-d2bd2a29d028 // indirect
	golang.org/x/mod v0.22.0 // indirect
	golang.org/x/oauth2 v0.25.0 // indirect
	golang.org/x/sync v0.10.0 // indirect
	golang.org/x/sys v0.29.0 // indirect
	golang.org/x/term v0.28.0 // indirect
	golang.org/x/text v0.21.0 // indirect
	golang.org/x/time v0.8.0 // indirect
	golang.org/x/tools v0.29.0 // indirect
	golang.org/x/tools/gopls v0.8.4 // indirect
	golang.org/x/vuln v0.0.0-20220503210553-a5481fb0c8be // indirect
	golang.org/x/xerrors v0.0.0-20240903120638-7835f813f4da // indirect
	gonum.org/v1/gonum v0.11.0 // indirect
	gonum.org/v1/netlib v0.0.0-20190313105609-8cb42192e0e0 // indirect
	gonum.org/v1/plot v0.10.1 // indirect
	google.golang.org/api v0.215.0 // indirect
	google.golang.org/appengine v1.6.8 // indirect
	google.golang.org/genproto v0.0.0-20241118233622-e639e219e697 // indirect
	google.golang.org/genproto/googleapis/api v0.0.0-20241209162323-e6fa225c2576 // indirect
	google.golang.org/genproto/googleapis/bytestream v0.0.0-20241223144023-3abc09e42ca8 // indirect
	google.golang.org/genproto/googleapis/rpc v0.0.0-20241223144023-3abc09e42ca8 // indirect
	google.golang.org/grpc v1.67.3 // indirect
	google.golang.org/grpc/cmd/protoc-gen-go-grpc v1.1.0 // indirect
	google.golang.org/protobuf v1.36.1 // indirect
	gopkg.in/alecthomas/kingpin.v2 v2.2.6 // indirect
	gopkg.in/check.v1 v1.0.0-20201130134442-10cb98267c6c // indirect
	gopkg.in/errgo.v2 v2.1.0 // indirect
	gopkg.in/ini.v1 v1.67.0 // indirect
	gopkg.in/yaml.v2 v2.4.0 // indirect
	gopkg.in/yaml.v3 v3.0.1 // indirect
	gorm.io/gorm v1.20.2 // indirect
	honnef.co/go/tools v0.3.0 // indirect
	lukechampine.com/uint128 v1.2.0 // indirect
	modernc.org/cc/v3 v3.40.0 // indirect
	modernc.org/ccgo/v3 v3.16.13 // indirect
	modernc.org/ccorpus v1.11.6 // indirect
	modernc.org/httpfs v1.0.6 // indirect
	modernc.org/libc v1.22.2 // indirect
	modernc.org/mathutil v1.5.0 // indirect
	modernc.org/memory v1.5.0 // indirect
	modernc.org/opt v0.1.3 // indirect
	modernc.org/sqlite v1.18.2 // indirect
	modernc.org/strutil v1.1.3 // indirect
	modernc.org/tcl v1.13.2 // indirect
	modernc.org/token v1.1.0 // indirect
	modernc.org/z v1.5.1 // indirect
	mvdan.cc/gofumpt v0.3.0 // indirect
	mvdan.cc/unparam v0.0.0-20211214103731-d0ef000c54e5 // indirect
	mvdan.cc/xurls/v2 v2.4.0 // indirect
	rsc.io/binaryregexp v0.2.0 // indirect
	rsc.io/pdf v0.1.1 // indirect
	rsc.io/quote/v3 v3.1.0 // indirect
	rsc.io/sampler v1.3.0 // indirect
	sigs.k8s.io/yaml v1.2.0 // indirect
)
