中文,英文,印尼,阿语,葡萄牙语
Bind payonneer account,Bind payonneer account,Ikat akun payonneer,ربط حساب بايونير,Link para conta Payni
Transfer to President,Transfer to President,Transfer ke Owner Agency,تحويل الي وكيل,Transferência para o agente do proprietário
Cash will be sent to you through payoneer account,Cash will be sent to you through payoneer account,Uang tunai akan dikirimkan kepada Anda melalui akun payoneer,سيتم إرسال النقود إليك من خلال حساب بايونير,O dinheiro será enviado para você através da conta payoneer
Re-enter your payoneer account,Re-enter your payoneer account,Ketik ulang akun payoneer Anda,أعد إدخال حساب بايونير الخاص بك,Reinsira sua conta payoneer
Input your payoneer account,Input your payoneer account,Masukkan akun payoneer Anda,أدخل حساب بايونير الخاص بك,Insira sua conta payoneer
Input your payoneer account again,Input your payoneer account again,Masukkan kembali akun payoneer Anda,أدخل حساب بايونير الخاص بك مرة أخرى,Insira sua conta payoneer novamente
Input,Input,Masukkan,إدخال,Entrada
Bind successfully,Bind successfully,Berhasil mengikat,ربط بنجاح,Vincular com sucesso
Please bind payonneer account,Please bind payonneer account,Please bind payonneer account,الرجاء ربط حساب بايونير,"Por favor, vincule a conta do payoneer"
Withdraw immediately,Withdraw immediately,Segera menarik,انسحب فورا,Retirar imediatamente
"share failed, try again","share failed, try again","Gagal berbagi, coba lagi",فشلت المشاركة ، حاول مرة أخرى,"Falha ao compartilhar, tente novamente"
wheel of fortune,wheel of fortune,roda keberuntungan,عجلة الحظ,roda da fortuna
Start,Start,Mulai,بداية,Começar
JOIN,JOIN,IKUTI,انضم,JUNTE
STARLIST,STARLIST,DAFTAR BINTANG,قائمة النجوم,LISTA DE ESTRELAS
Keep,Keep,Pertahankan,احتفظ,Manter
游戏,Game,Game,لعبة,Jogo
表情包,Stickers,Stiker,ملصقات,Adesivos
礼物墙,Gift Wall,Dinding Hadiah,جدار الهدايا,Mural de Presentes
大转盘,Wheel,Roda,عجلة,Roda
Poker,Poker,Poker,لعبة البوكر,Pôquer
Ferris Wheel,Ferris Wheel,Kincir ria,حلقات الفواكه,Roda gigante
Fruilt Loops,Fruilt Loops,putaran buah-buahan,عجلة فيريس,Loops de frutas
Crazy draw,Crazy draw,undian gila,اليانصيب,Sorteio louco
房间背景,Room Background,Background ruangan,خلفية الغرفة,Fundo da sala
Photo,Photo,Foto,صورة,foto
分享,Share,Berbagi,يشارك,Compartilhar
设置,Settings,Pengaturan,إعدادات,Definições
Customize,Customize,Sesuaikan,مخصصة,Customizar
Bind account,Bind account,Ikat akun,ربط الحساب,Vincular conta
Currency type,Currency type,Jenis mata uang,نوع العملات,Tipo de moeda
Channel,Channel,Saluran,قناة,Canal
Username,Username,Username,اسم المستخدم,Nome de usuário
Mobile Number,Mobile Number,Nomor HP,رقم الهاتف,Número de celular
Card Number,Card Number,Nomor kartu,رقم البطاقة,Número do cartão
Submit,Submit,Serah,إرسال,Enviar
Method,Method,metode,طريقة,Método
GOPAY,GOPAY,GOPAY,جوباي,GOPAY
Please enter the mobile number,Please enter the mobile number,Silakan ketik nomor HP,الرجاء إدخال رقم الهاتف,Introduza o Número de telemóvel
Enter your name,Enter your name,Ketik nama Anda,أدخل أسمك,Digite seu nome
Bank Card,Bank Card,Kartu bank,بطاقة البنك,Cartão do banco
Please enter the bank card number,Please enter the bank card number,Silakan ketik nomor kartu bank,من فضلك ادخل رقم البطاقة البنكية,Insira o número do cartão bancário
IDR,IDR,IDR,IDR,IDR
Diamond:,Diamond:,Berlian:,الماس:,Diamante:
Withdraw immediately,Withdraw immediately,Segera menarik,انسحب فورا,Retirar imediatamente
Choose withdrawal channel,Choose withdrawal channel,Pilih saluran penarikan,اختر قناة الانسحاب,Escolha o canal de retirada
"Transfer to president, president transfer to u~","Transfer to president, president transfer to u~","Transfer ke owner agency, owner transfer ke Anda~",التحويل إلى الوكيل والوكيل نقل إليك,"Transferência para presidente, transferência de presidente para você ~"
Camera,Camera,Kamera,كاميرا,Câmera
Album,Album,Album,البوم,Álbum
房间封面,Room Cover,Cover ruangan,غطاء الغرفة,Cobertura do Quarto
保存,save,Simpan,حفظ,Salve
Payonneer,Payonneer,Payonneer,بايونير,Payoneer
Transfer to President,Transfer to President,Transfer ke Owner Agency,تحويل الي وكيل,Transferência para presidente
更多,more,lagi,أكثر,mais
退出,Exit,Keluar,مخرج,Saída
我的房间,My Room,Ruanganku,غرفتي,Meu quarto
成为主播才能开播,Become a host to start broadcasting,Menjadi host untuk memulai siaran,كن مضيفا لبدء البث,Torne-se um anfitrião para começar a transmitir