中文,英语,印尼语,阿语,葡萄牙语
%S礼物墙,%S Gift Wall,%S Dinding Hadiah,%S  جدار الهدايا,Mural de Presentes %S
已点亮 %s/%s,Activated%s/%s ,%s/%s telah dinyala,تم تشغيل%s/%s,Ativado%s/%s
送礼物为主播助力~,Support host with your generous gifts ~,Kirimkan hadiah untuk mendukung host~,إرسال الهدايا لدعم المضيفين ~,Apoie o anfitrião com seus presentes generosos ~
礼物排名,Gift Ranking,Peringkat Hadiah,ترتيب الهدية,Classificação de presentes
赠送礼物,Send Gift,Mengirimkan hadiah,إرسال الهدايا,Enviar presente
礼物墙玩法说明,Gift Wall Rules,Cara main dinding hadiah,قواعد جدار الهدايا,Regras do mural de presentes
点亮礼物,Activate Gift,menyala hadiah,تضيء هدية,Ativar presente
主播收到同一个礼物达指定数量要求时，该礼物会被自动点亮,"If host receive certain amount of the target gift,the gift will be activated automatically","Saat host menerima hadiah yang sama dan mencapai jumlah yang tertentu, hadiah itu akan dinyala secara otomatis",عندما  المضيف استلام نفس الهدية ويصل إلى مبلغ معين ، ستضيء الهدية  تلقائيًا,"Se o host receber certa quantidade do alvo
 presente, o presente será ativado automaticamente"
礼物冠名,Name Your Gift,hadiah bernama,الهدية المسماة,Dê um nome ao seu presente
主播收到同一个礼物达指定数量要求时，该礼物会被自动点亮,"If host receive certain amount of the target gift,the gift will be activated automatically","Saat host menerima hadiah yang sama dan mencapai jumlah yang tertentu, hadiah itu akan dinyala secara otomatis",عندما  المضيف استلام نفس الهدية ويصل إلى مبلغ معين ، ستضيء الهدية  تلقائيًا,"Se o host receber certa quantidade do alvo presente, o presente será ativado automaticamente"
冠名特权,Access To Name,hak istimewa penamaan,امتيازات التسمية,Acesso ao nome
 用户赠送自己冠名的礼物，送礼横幅和礼物面板会有冠名标识,"If user send give that is named by themselves , gifting flyer and pannel will show their names ","Saat pengguna memberikan hadiah bernama yang dimilik mereka sendiri, spanduk pemberian hadiah dan panel hadiah akan ditampilkan logo bernama.",إذا المستخدم  أرسل الهدية الذي تم تسميته بنفسه ، فسيظهر إهداء النشرة الإعلانية والبانيل أسمائهم,"Se o usuário enviar um presente com nome próprio, o panfleto e o painel de presentes mostrarão seus nomes"
刷新规则,Refresh Rules,aturan pembaruan,تحديث القواعد,Atualizar regras
礼物墙印尼时间每周日晚上24:00刷新。刷新倒计时结束后，所有礼物变成未点亮状态，用户冠名被清空。,"Gift wall will refresh at 0 am (GMT+7) every sunday. After the refresh countdown, all gifts will become unactivated, user named gift will be cleared. ","Dinding hadiah diperbarui setiap hari Minggu pukul 24:00 WIB. Setelah hitungan selesai diperbarui, semua hadiah akan menjadi status belum dinyala, dan pengguna bernama akan dihapus.",يتم تحديث جدار الجائزة كل يوم أحد في الساعة 24:00 بتوقيت غرب إندونيسيا. بمجرد الانتهاء من تحديث العد ، ستكون جميع المكافآت في حالة غير مضاءة ، وسيتم حذف المستخدم المحدد.,"O mural de presentes será atualizado às 0h (GMT+7) a cada
 Domingo. Após a contagem regressiva de atualização, todos os presentes
 ficará desativada,
 presente nomeado pelo usuário será apagado."
,,,,
还差%sEXP即可升级%s,%sEXP to promotion,Masih sisa %sEXP untuk ditingkatkan ke %s,لا يزال لديكs%EXP متبقيًا للترقية إلى%s,Ainda há %sEXP para atualizar para %s
,,,,
进入房间观看直播,Enter to watch Livestream,Masuk ke ruangan untuk menonton siaran langsung,أدخل لمشاهدة البث المباشر,Entre para assistir a transmissão ao vivo
关注主播,Subscribe host,Ikuti host,مضيف الاشتراك,Assinar anfitrião
送个礼物作见面礼吧~,You can send a kind gift as greeting~,Ayo kirimkan hadiah sebagai ucapan~,يمكنك إرسال هدية لطيفة كتحية ~,Você pode enviar um presente gentil como saudação ~
选择一个礼物,Choose a gift,pilih hadiah,اختر هدية,Escolha seu presente
送个小礼物给喜欢的主播吧~,Send a gift for your favourite host ~,Kirim hadiah kecil ke host favoritmu~,أرسل هدية لمضيفك المفضل ~,Envie um presente para seu anfitrião favorito ~
,,,,
试着关注下主播吧,Let's subscribe host,Cobalah untuk mengikuti host,دعونا الاشتراك المضيف,Vamos assinar host
去认识下新朋友吧,Come and meet new friends,pergi bertemu teman baru,تعال وقابل أصدقاء جدد,Venha conhecer novos amigos
左滑不喜欢,Swipe left to dislike,Gesek ke kiri tidak suka,اسحب لليسار لم يعجبني,Deslize para a esquerda para não gostar
右滑喜欢,Swipe right to like,Geser ke kanan ditanda suka,انتقد الحق في الإعجاب,Deslize para a direita para curtir
发布一条动态看看吧,Post a moment to share your life together,Publikasikan berita untuk dilihatkan!,انشر لحظة لمشاركة حياتك معًا,Publique um momento para compartilhar sua vida juntos
送礼横幅,Gifting Banner,Spanduk Hadiah,هدية لافتة,Banner de presente
礼物面板,Gifting Panel,Panel Hadiah,لوحة الهدايا,Painel de presentes