Key,FileSize,Hash,PutTime,MimeType,FileType,EndUser
FgRR1ev-9cWc7j7KUHUO9WcVDBZ7,3.29MB,FgRR1ev-9cWc7j7KUHUO9WcVDBZ7,16836024086360598,application/octet-stream,0,
FhP39CYGhbGUw2nXV6kxyzM9fXKV,3.55MB,FhP39CYGhbGUw2nXV6kxyzM9fXKV,16795574817060196,application/octet-stream,0,
